{
    "KPlugin": {
        "Authors": [
            {
                "Email": "kossebau@kde.org",
                "Name": "Friedrich W. H. Kossebau",
                "Name[ar]": "Friedrich W. H. Kossebau",
                "Name[az]": "Friedrich W. H. Kossebau",
                "Name[ca@valencia]": "Friedrich W. H. Kossebau",
                "Name[ca]": "Friedrich W. H. Kossebau",
                "Name[cs]": "Friedrich W. H. Kossebau",
                "Name[de]": "Friedrich W. H. Kossebau",
                "Name[en_GB]": "Friedrich W. H. Kossebau",
                "Name[es]": "Friedrich W. H. Kossebau",
                "Name[eu]": "Friedrich W. H. Kossebau",
                "Name[fi]": "Friedrich W. H. Kossebau",
                "Name[fr]": "Friedrich W. H. Kossebau",
                "Name[ia]": "Friedrich W. H. Kossebau",
                "Name[it]": "Friedrich W. H. Kossebau",
                "Name[ja]": "Friedrich W. H. Kossebau",
                "Name[ko]": "Friedrich W. H. Kossebau",
                "Name[lt]": "Friedrich W. H. Kossebau",
                "Name[nl]": "Friedrich W. H. Kossebau",
                "Name[nn]": "Friedrich W.H. Kossebau",
                "Name[pl]": "Friedrich W. H. Kossebau",
                "Name[pt]": "Friedrich W. H. Kossebau",
                "Name[pt_BR]": "Friedrich W. H. Kossebau",
                "Name[ro]": "Friedrich W. H. Kossebau",
                "Name[ru]": "Friedrich W. H. Kossebau",
                "Name[sk]": "Friedrich W. H. Kossebau",
                "Name[sl]": "Friedrich W. H. Kossebau",
                "Name[sv]": "Friedrich W. H. Kossebau",
                "Name[tr]": "Friedrich W. H. Kossebau",
                "Name[uk]": "Friedrich W. H. Kossebau",
                "Name[vi]": "Friedrich W. H. Kossebau",
                "Name[x-test]": "xxFriedrich W. H. Kossebauxx",
                "Name[zh_CN]": "Friedrich W. H. Kossebau"
            }
        ],
        "Description": "Calendar plugin for displaying astronomical events",
        "Description[ar]": "ملحق لتقويم يعرض الأحداث الفلكية",
        "Description[az]": "Astronomik hadisələri göstərmək üçün təqvim əlavəsi",
        "Description[ca@valencia]": "Connector de calendari per a mostrar esdeveniments astronòmics",
        "Description[ca]": "Connector de calendari per a mostrar esdeveniments astronòmics",
        "Description[cs]": "Modul kalendáře pro zobrazování astronomických událostí",
        "Description[de]": "Kalender-Modul zur Anzeige von astronomischen Ereignissen",
        "Description[en_GB]": "Calendar plugin for displaying astronomical events",
        "Description[es]": "Complemento del calendario para mostrar eventos astronómicos",
        "Description[eu]": "Gertaera astronomikoak erakusteko egutegiko plugina",
        "Description[fi]": "Kalenteriliitännäisen tähtitieteen tapahtumien näyttämiseksi",
        "Description[fr]": "Module externe de calendrier pour l'affichage des évènements astronomiques",
        "Description[ia]": "Plugin de calendario per monstrar eventos astronomic",
        "Description[it]": "Estensione del calendario per visualizzare gli eventi astronomici",
        "Description[ja]": "天文現象を表示するカレンダープラグインです",
        "Description[ko]": "천문 현상을 표시하는 달력 플러그인",
        "Description[lt]": "Kalendoriaus priedas, skirtas astronominių įvykių rodymui",
        "Description[nl]": "Plug-in voor agenda voor tonen van astronomische gebeurtenissen",
        "Description[nn]": "Kalendertillegg for vising av astronomiske hendingar",
        "Description[pl]": "Wtyczka kalendarza do wyświetlania wydarzeń astronomicznych",
        "Description[pt]": "'Plugin' de calendário para mostrar os eventos astronómicos",
        "Description[pt_BR]": "Plugin de calendário para mostrar eventos astronômicos",
        "Description[ro]": "Extensie de calendar pentru afișarea evenimentelor astronomice",
        "Description[ru]": "Модуль календаря для отображения астрономических событий",
        "Description[sk]": "Zásuvný modul kalendára na zobrazovanie astronomických udalostí",
        "Description[sl]": "Koledarski vtičnik za prikaz astronomskih dogodkov",
        "Description[sv]": "Kalenderinsticksprogram för att visa astronomiska händelser",
        "Description[tr]": "Astronomik olayları görüntülemek için takvim eklentisi",
        "Description[uk]": "Додаток календаря для показу астрономічних подій",
        "Description[vi]": "Phần cài cắm lịch để hiển thị các sự kiện thiên văn",
        "Description[x-test]": "xxCalendar plugin for displaying astronomical eventsxx",
        "Description[zh_CN]": "显示天文事件的日历插件",
        "Icon": "weather-clear-night",
        "Name": "Astronomical Events",
        "Name[ar]": "أحداث فلكية",
        "Name[az]": "Astronomik hadisələr",
        "Name[ca@valencia]": "Esdeveniments astronòmics",
        "Name[ca]": "Esdeveniments astronòmics",
        "Name[cs]": "Astronomické události",
        "Name[de]": "Astronomische Ereignisse",
        "Name[en_GB]": "Astronomical Events",
        "Name[es]": "Eventos astronómicos",
        "Name[eu]": "Gertaera astronomikoak",
        "Name[fi]": "Tähtitieteen tapahtumat",
        "Name[fr]": "Évènements astronomiques",
        "Name[ia]": "Eventos astronomic",
        "Name[it]": "Eventi astronomici",
        "Name[ja]": "天文現象",
        "Name[ko]": "천문 현상",
        "Name[lt]": "Astronominiai įvykiai",
        "Name[nl]": "Astronomische gebeurtenissen",
        "Name[nn]": "Astronomiske hendingar",
        "Name[pl]": "Wydarzenia astronomiczne",
        "Name[pt]": "Eventos Astronómicos",
        "Name[pt_BR]": "Eventos astronômicos",
        "Name[ro]": "Evenimente astronomice",
        "Name[ru]": "Астрономические события",
        "Name[sk]": "Astronomické udalosti",
        "Name[sl]": "Astronomski dogodki",
        "Name[sv]": "Astronomiska händelser",
        "Name[tr]": "Astronomik Olaylar",
        "Name[uk]": "Астрономічні події",
        "Name[vi]": "Các sự kiện thiên văn",
        "Name[x-test]": "xxAstronomical Eventsxx",
        "Name[zh_CN]": "天文事件"
    },
    "X-KDE-PlasmaCalendar-ConfigUi": "astronomicalevents/AstronomicalEventsConfig.qml"
}
