{
    "KPlugin": {
        "Description": "Plugin for Plasma PoTD Engine",
        "Description[ar]": "ملحق لمحرك PoTD",
        "Description[az]": "Plasma Comic mühərriki üçün qoşma",
        "Description[ca@valencia]": "Connector per al motor PoTD de Plasma",
        "Description[ca]": "Connector per al motor PoTD del Plasma",
        "Description[cs]": "Modul pro Plasma PoTD engine",
        "Description[de]": "Modul für den Plasma-Datentreiber „Bilder des Tages“",
        "Description[en_GB]": "Plugin for Plasma PoTD Engine",
        "Description[es]": "Complemento para el motor de imagen del día de Plasma",
        "Description[eu]": "Plasma PoTD motorrarentzako plugina",
        "Description[fi]": "Plasman päivän kuva -moottoriliitännäinen",
        "Description[fr]": "Module externe pour le moteur « PoTD » de Plasma",
        "Description[ia]": "Plugin per Plasma PoTD Engine",
        "Description[it]": "Estensione per il motore PoTD di Plasma",
        "Description[ja]": "Plasma PoTD (今日の写真) エンジンのためのプラグインです",
        "Description[ko]": "Plasma 오늘의 그림 엔진 플러그인",
        "Description[lt]": "Priedas Plasma PoTD moduliui",
        "Description[nl]": "Plug-in voor Plasma-PoTD-engine",
        "Description[nn]": "Programtillegg for Plasma PoTD-motoren",
        "Description[pl]": "Wtyczka silnika PoTD Plazmy",
        "Description[pt]": "'Plugin' para o Motor PoTD do Plasma",
        "Description[pt_BR]": "Plugin para o mecanismo PoTD do Plasma",
        "Description[ro]": "Extensie pentru motorul de imagine a zilei Plasma",
        "Description[ru]": "Поддержка картинки дня для Plasma",
        "Description[sk]": "Plugin pre Plasma PoTD Engine",
        "Description[sl]": "Vtičniik za Plasma PoTD Engine",
        "Description[sv]": "Insticksprogram för Plasma gränssnitt till dagens bild",
        "Description[tr]": "Plasma PoTD Motoru için Eklenti",
        "Description[uk]": "Додаток для рушія Плазми PoTD",
        "Description[vi]": "Phần cài cắm cho dụng cụ Plasma \"Ảnh của ngày\"",
        "Description[x-test]": "xxPlugin for Plasma PoTD Enginexx",
        "Description[zh_CN]": "Plasma 每日一图引擎插件"
    }
}
